{
  "B11223": {
    "name": "Mobil Kijang",
    "instanceType": "VEHICLE",
    "odometer": "2000km",
    "shipmentNo": "CDO.1133"
  },
  "10292132": {
    "driverId": "10292132",
    "shipmentNo": "CDO.928231",
    "instanceType": "MOBODRIVE"
  },
  "220130689": {
    "driverId": "220130689",
    "instanceType": "MOBODRIVE",
    "shipmentNo": "CDO.192823",
    "customer": "BDP INDONESIA"
  }
}