[{"lat":-6.1050119,"lng":106.9183375,"address":"Jl. Kali Baru Bar. 13B No.54, RT.8/RW.8, Kali Baru, Kec. Cilincing, Kota Jkt Utara, Daerah Khusus Ibukota Jakarta 14110, Indonesia","created":"2020-02-01 10:00:31.020472"}, 
 {"lat":-6.1010946,"lng":106.9212887,"address":"Jl. Kalibaru Barat IA No.89, RT.12/RW.4, Kali Baru, Kec. Cilincing, Kota Jkt Utara, Daerah Khusus Ibukota Jakarta 14110, Indonesia","created":"2020-02-01 10:01:33.177381"}, 
 {"lat":-6.1010946,"lng":106.9212887,"address":"Jl. Kalibaru Barat IA No.89, RT.12/RW.4, Kali Baru, Kec. Cilincing, Kota Jkt Utara, Daerah Khusus Ibukota Jakarta 14110, Indonesia","created":"2020-02-01 10:02:31.998513"}, 
 {"lat":-6.1010946,"lng":106.9212887,"address":"Jl. Kalibaru Barat IA No.89, RT.12/RW.4, Kali Baru, Kec. Cilincing, Kota Jkt Utara, Daerah Khusus Ibukota Jakarta 14110, Indonesia","created":"2020-02-01 10:03:35.087159"}, 
 {"lat":-6.1010946,"lng":106.9212887,"address":"Jl. Kalibaru Barat IA No.89, RT.12/RW.4, Kali Baru, Kec. Cilincing, Kota Jkt Utara, Daerah Khusus Ibukota Jakarta 14110, Indonesia","created":"2020-02-01 10:04:35.121296"}, 
 {"lat":-6.1010946,"lng":106.9212887,"address":"Jl. Kalibaru Barat IA No.89, RT.12/RW.4, Kali Baru, Kec. Cilincing, Kota Jkt Utara, Daerah Khusus Ibukota Jakarta 14110, Indonesia","created":"2020-02-01 10:05:40.265806"}, 
 {"lat":-6.1010946,"lng":106.9212887,"address":"Jl. Kalibaru Barat IA No.89, RT.12/RW.4, Kali Baru, Kec. Cilincing, Kota Jkt Utara, Daerah Khusus Ibukota Jakarta 14110, Indonesia","created":"2020-02-01 10:07:11.472022"}, 
 {"lat":-6.1010946,"lng":106.9212887,"address":"Jl. Kalibaru Barat IA No.89, RT.12/RW.4, Kali Baru, Kec. Cilincing, Kota Jkt Utara, Daerah Khusus Ibukota Jakarta 14110, Indonesia","created":"2020-02-01 10:11:43.91869"}, 
 {"lat":-6.1010946,"lng":106.9212887,"address":"Jl. Kalibaru Barat IA No.89, RT.12/RW.4, Kali Baru, Kec. Cilincing, Kota Jkt Utara, Daerah Khusus Ibukota Jakarta 14110, Indonesia","created":"2020-02-01 10:12:41.942754"}, 
 {"lat":-6.1010946,"lng":106.9212887,"address":"Jl. Kalibaru Barat IA No.89, RT.12/RW.4, Kali Baru, Kec. Cilincing, Kota Jkt Utara, Daerah Khusus Ibukota Jakarta 14110, Indonesia","created":"2020-02-01 10:13:43.279326"}, 
 {"lat":-6.1010946,"lng":106.9212887,"address":"Jl. Kalibaru Barat IA No.89, RT.12/RW.4, Kali Baru, Kec. Cilincing, Kota Jkt Utara, Daerah Khusus Ibukota Jakarta 14110, Indonesia","created":"2020-02-01 10:14:45.495561"}, 
 {"lat":-6.1010946,"lng":106.9212887,"address":"Jl. Kalibaru Barat IA No.89, RT.12/RW.4, Kali Baru, Kec. Cilincing, Kota Jkt Utara, Daerah Khusus Ibukota Jakarta 14110, Indonesia","created":"2020-02-01 10:15:46.292767"}, 
 {"lat":-6.1010946,"lng":106.9212887,"address":"Jl. Kalibaru Barat IA No.89, RT.12/RW.4, Kali Baru, Kec. Cilincing, Kota Jkt Utara, Daerah Khusus Ibukota Jakarta 14110, Indonesia","created":"2020-02-01 10:16:46.680886"}, 
 {"lat":-6.1010946,"lng":106.9212887,"address":"Jl. Kalibaru Barat IA No.89, RT.12/RW.4, Kali Baru, Kec. Cilincing, Kota Jkt Utara, Daerah Khusus Ibukota Jakarta 14110, Indonesia","created":"2020-02-01 10:17:47.319266"}, 
 {"lat":-6.1010946,"lng":106.9212887,"address":"Jl. Kalibaru Barat IA No.89, RT.12/RW.4, Kali Baru, Kec. Cilincing, Kota Jkt Utara, Daerah Khusus Ibukota Jakarta 14110, Indonesia","created":"2020-02-01 10:18:47.60328"}, 
 {"lat":-6.1010946,"lng":106.9212887,"address":"Jl. Kalibaru Barat IA No.89, RT.12/RW.4, Kali Baru, Kec. Cilincing, Kota Jkt Utara, Daerah Khusus Ibukota Jakarta 14110, Indonesia","created":"2020-02-01 10:19:47.933682"}, 
 {"lat":-6.1010946,"lng":106.9212887,"address":"Jl. Kalibaru Barat IA No.89, RT.12/RW.4, Kali Baru, Kec. Cilincing, Kota Jkt Utara, Daerah Khusus Ibukota Jakarta 14110, Indonesia","created":"2020-02-01 10:21:02.181173"}, 
 {"lat":-6.1119922,"lng":106.886069,"address":"Jl. Lagoa Kanal No.64, RT.7/RW.2, Kb. Bawang, Tj. Priok, Kota Jkt Utara, Daerah Khusus Ibukota Jakarta 14320, Indonesia","created":"2020-02-01 10:21:59.542803"}, 
 {"lat":-6.1119922,"lng":106.886069,"address":"Jl. Lagoa Kanal No.64, RT.7/RW.2, Kb. Bawang, Tj. Priok, Kota Jkt Utara, Daerah Khusus Ibukota Jakarta 14320, Indonesia","created":"2020-02-01 10:23:26.502361"}, 
 {"lat":-6.1119922,"lng":106.886069,"address":"Jl. Lagoa Kanal No.64, RT.7/RW.2, Kb. Bawang, Tj. Priok, Kota Jkt Utara, Daerah Khusus Ibukota Jakarta 14320, Indonesia","created":"2020-02-01 10:28:10.011247"}, 
 {"lat":-6.1119922,"lng":106.886069,"address":"Jl. Lagoa Kanal No.64, RT.7/RW.2, Kb. Bawang, Tj. Priok, Kota Jkt Utara, Daerah Khusus Ibukota Jakarta 14320, Indonesia","created":"2020-02-01 10:29:08.638025"}, 
 {"lat":-6.1119922,"lng":106.886069,"address":"Jl. Lagoa Kanal No.64, RT.7/RW.2, Kb. Bawang, Tj. Priok, Kota Jkt Utara, Daerah Khusus Ibukota Jakarta 14320, Indonesia","created":"2020-02-01 10:30:12.2956"}, 
 {"lat":-6.1524019,"lng":106.9408408,"address":"Jl. Inspeksi Kirana, RT.1/RW.10, Rorotan, Kec. Cilincing, Kota Jkt Utara, Daerah Khusus Ibukota Jakarta 14140, Indonesia","created":"2020-02-01 10:31:13.371482"}, 
 {"lat":-6.1524019,"lng":106.9408408,"address":"Jl. Inspeksi Kirana, RT.1/RW.10, Rorotan, Kec. Cilincing, Kota Jkt Utara, Daerah Khusus Ibukota Jakarta 14140, Indonesia","created":"2020-02-01 10:36:16.410853"}, 
 {"lat":-6.158255,"lng":106.9471126,"address":"Jl. Rorotan Babek TNI No.28, RT.6/RW.4, Rorotan, Kec. Cilincing, Kota Jkt Utara, Daerah Khusus Ibukota Jakarta 14140, Indonesia","created":"2020-02-01 10:42:21.76968"}, 
 {"lat":-6.158255,"lng":106.9471126,"address":"Jl. Rorotan Babek TNI No.28, RT.6/RW.4, Rorotan, Kec. Cilincing, Kota Jkt Utara, Daerah Khusus Ibukota Jakarta 14140, Indonesia","created":"2020-02-01 10:43:22.04229"}, 
 {"lat":-6.158255,"lng":106.9471126,"address":"Jl. Rorotan Babek TNI No.28, RT.6/RW.4, Rorotan, Kec. Cilincing, Kota Jkt Utara, Daerah Khusus Ibukota Jakarta 14140, Indonesia","created":"2020-02-01 10:44:22.502959"}, 
 {"lat":-6.158255,"lng":106.9471126,"address":"Jl. Rorotan Babek TNI No.28, RT.6/RW.4, Rorotan, Kec. Cilincing, Kota Jkt Utara, Daerah Khusus Ibukota Jakarta 14140, Indonesia","created":"2020-02-01 10:45:22.865349"}, 
 {"lat":-6.158255,"lng":106.9471126,"address":"Jl. Rorotan Babek TNI No.28, RT.6/RW.4, Rorotan, Kec. Cilincing, Kota Jkt Utara, Daerah Khusus Ibukota Jakarta 14140, Indonesia","created":"2020-02-01 10:46:23.90996"}, 
 {"lat":-6.1577803,"lng":106.9519088,"address":"JL. Rorotan Babek TNI, No. 2-3, Jakarta, 13910, RT.8/RW.4, Rorotan, Cilincing, North Jakarta City, Jakarta 14140, Indonesia","created":"2020-02-01 10:50:50.828792"}, 
 {"lat":-6.1577803,"lng":106.9519088,"address":"JL. Rorotan Babek TNI, No. 2-3, Jakarta, 13910, RT.8/RW.4, Rorotan, Cilincing, North Jakarta City, Jakarta 14140, Indonesia","created":"2020-02-01 10:52:27.288019"}, 
 {"lat":-6.1577803,"lng":106.9519088,"address":"JL. Rorotan Babek TNI, No. 2-3, Jakarta, 13910, RT.8/RW.4, Rorotan, Cilincing, North Jakarta City, Jakarta 14140, Indonesia","created":"2020-02-01 10:53:27.686573"}, 
 {"lat":-6.1577803,"lng":106.9519088,"address":"JL. Rorotan Babek TNI, No. 2-3, Jakarta, 13910, RT.8/RW.4, Rorotan, Cilincing, North Jakarta City, Jakarta 14140, Indonesia","created":"2020-02-01 10:59:06.812378"}, 
 {"lat":-6.1577803,"lng":106.9519088,"address":"JL. Rorotan Babek TNI, No. 2-3, Jakarta, 13910, RT.8/RW.4, Rorotan, Cilincing, North Jakarta City, Jakarta 14140, Indonesia","created":"2020-02-01 11:09:12.129897"}, 
 {"lat":-6.1577803,"lng":106.9519088,"address":"JL. Rorotan Babek TNI, No. 2-3, Jakarta, 13910, RT.8/RW.4, Rorotan, Cilincing, North Jakarta City, Jakarta 14140, Indonesia","created":"2020-02-01 11:18:39.981544"}, 
 {"lat":-6.1577803,"lng":106.9519088,"address":"JL. Rorotan Babek TNI, No. 2-3, Jakarta, 13910, RT.8/RW.4, Rorotan, Cilincing, North Jakarta City, Jakarta 14140, Indonesia","created":"2020-02-01 11:19:41.534869"}, 
 {"lat":-6.1577803,"lng":106.9519088,"address":"JL. Rorotan Babek TNI, No. 2-3, Jakarta, 13910, RT.8/RW.4, Rorotan, Cilincing, North Jakarta City, Jakarta 14140, Indonesia","created":"2020-02-01 11:20:43.774565"}, 
 {"lat":-6.1577803,"lng":106.9519088,"address":"JL. Rorotan Babek TNI, No. 2-3, Jakarta, 13910, RT.8/RW.4, Rorotan, Cilincing, North Jakarta City, Jakarta 14140, Indonesia","created":"2020-02-01 11:21:42.833603"}, 
 {"lat":-6.1577803,"lng":106.9519088,"address":"JL. Rorotan Babek TNI, No. 2-3, Jakarta, 13910, RT.8/RW.4, Rorotan, Cilincing, North Jakarta City, Jakarta 14140, Indonesia","created":"2020-02-01 11:22:44.196653"}, 
 {"lat":-6.1577803,"lng":106.9519088,"address":"JL. Rorotan Babek TNI, No. 2-3, Jakarta, 13910, RT.8/RW.4, Rorotan, Cilincing, North Jakarta City, Jakarta 14140, Indonesia","created":"2020-02-01 11:23:45.321152"}, 
 {"lat":-6.159507,"lng":106.9502954,"address":"Jl. Cakung Industri Selatan 1 No.2, RT.8/RW.4, Rorotan, Kec. Cilincing, Kota Jkt Utara, Daerah Khusus Ibukota Jakarta 14140, Indonesia","created":"2020-02-01 11:29:27.725114"}, 
 {"lat":-6.159507,"lng":106.9502954,"address":"Jl. Cakung Industri Selatan 1 No.2, RT.8/RW.4, Rorotan, Kec. Cilincing, Kota Jkt Utara, Daerah Khusus Ibukota Jakarta 14140, Indonesia","created":"2020-02-01 11:30:28.446154"}, 
 {"lat":-6.159507,"lng":106.9502954,"address":"Jl. Cakung Industri Selatan 1 No.2, RT.8/RW.4, Rorotan, Kec. Cilincing, Kota Jkt Utara, Daerah Khusus Ibukota Jakarta 14140, Indonesia","created":"2020-02-01 11:31:48.512431"}, 
 {"lat":-6.159507,"lng":106.9502954,"address":"Jl. Cakung Industri Selatan 1 No.2, RT.8/RW.4, Rorotan, Kec. Cilincing, Kota Jkt Utara, Daerah Khusus Ibukota Jakarta 14140, Indonesia","created":"2020-02-01 11:32:52.213748"}, 
 {"lat":-6.159507,"lng":106.9502954,"address":"Jl. Cakung Industri Selatan 1 No.2, RT.8/RW.4, Rorotan, Kec. Cilincing, Kota Jkt Utara, Daerah Khusus Ibukota Jakarta 14140, Indonesia","created":"2020-02-01 11:33:53.994551"}, 
 {"lat":-6.159507,"lng":106.9502954,"address":"Jl. Cakung Industri Selatan 1 No.2, RT.8/RW.4, Rorotan, Kec. Cilincing, Kota Jkt Utara, Daerah Khusus Ibukota Jakarta 14140, Indonesia","created":"2020-02-01 11:34:53.30451"}, 
 {"lat":-6.159507,"lng":106.9502954,"address":"Jl. Cakung Industri Selatan 1 No.2, RT.8/RW.4, Rorotan, Kec. Cilincing, Kota Jkt Utara, Daerah Khusus Ibukota Jakarta 14140, Indonesia","created":"2020-02-01 11:35:54.369527"}, 
 {"lat":-6.159507,"lng":106.9502954,"address":"Jl. Cakung Industri Selatan 1 No.2, RT.8/RW.4, Rorotan, Kec. Cilincing, Kota Jkt Utara, Daerah Khusus Ibukota Jakarta 14140, Indonesia","created":"2020-02-01 11:36:52.396384"}, 
 {"lat":-6.159507,"lng":106.9502954,"address":"Jl. Cakung Industri Selatan 1 No.2, RT.8/RW.4, Rorotan, Kec. Cilincing, Kota Jkt Utara, Daerah Khusus Ibukota Jakarta 14140, Indonesia","created":"2020-02-01 11:37:55.078518"}, 
 {"lat":-6.159507,"lng":106.9502954,"address":"Jl. Cakung Industri Selatan 1 No.2, RT.8/RW.4, Rorotan, Kec. Cilincing, Kota Jkt Utara, Daerah Khusus Ibukota Jakarta 14140, Indonesia","created":"2020-02-01 11:38:56.387662"}, 
 {"lat":-6.159507,"lng":106.9502954,"address":"Jl. Cakung Industri Selatan 1 No.2, RT.8/RW.4, Rorotan, Kec. Cilincing, Kota Jkt Utara, Daerah Khusus Ibukota Jakarta 14140, Indonesia","created":"2020-02-01 11:39:56.12283"}, 
 {"lat":-6.159507,"lng":106.9502954,"address":"Jl. Cakung Industri Selatan 1 No.2, RT.8/RW.4, Rorotan, Kec. Cilincing, Kota Jkt Utara, Daerah Khusus Ibukota Jakarta 14140, Indonesia","created":"2020-02-01 11:40:56.477388"}, 
 {"lat":-6.159507,"lng":106.9502954,"address":"Jl. Cakung Industri Selatan 1 No.2, RT.8/RW.4, Rorotan, Kec. Cilincing, Kota Jkt Utara, Daerah Khusus Ibukota Jakarta 14140, Indonesia","created":"2020-02-01 11:41:57.150262"}, 
 {"lat":-6.159507,"lng":106.9502954,"address":"Jl. Cakung Industri Selatan 1 No.2, RT.8/RW.4, Rorotan, Kec. Cilincing, Kota Jkt Utara, Daerah Khusus Ibukota Jakarta 14140, Indonesia","created":"2020-02-01 11:42:57.550245"}, 
 {"lat":-6.159507,"lng":106.9502954,"address":"Jl. Cakung Industri Selatan 1 No.2, RT.8/RW.4, Rorotan, Kec. Cilincing, Kota Jkt Utara, Daerah Khusus Ibukota Jakarta 14140, Indonesia","created":"2020-02-01 11:43:58.216985"}, 
 {"lat":-6.1577803,"lng":106.9519088,"address":"JL. Rorotan Babek TNI, No. 2-3, Jakarta, 13910, RT.8/RW.4, Rorotan, Cilincing, North Jakarta City, Jakarta 14140, Indonesia","created":"2020-02-01 11:44:58.613485"}, 
 {"lat":-6.1577803,"lng":106.9519088,"address":"JL. Rorotan Babek TNI, No. 2-3, Jakarta, 13910, RT.8/RW.4, Rorotan, Cilincing, North Jakarta City, Jakarta 14140, Indonesia","created":"2020-02-01 11:45:59.242336"}, 
 {"lat":-6.1577803,"lng":106.9519088,"address":"JL. Rorotan Babek TNI, No. 2-3, Jakarta, 13910, RT.8/RW.4, Rorotan, Cilincing, North Jakarta City, Jakarta 14140, Indonesia","created":"2020-02-01 11:46:59.659343"}, 
 {"lat":-6.1577803,"lng":106.9519088,"address":"JL. Rorotan Babek TNI, No. 2-3, Jakarta, 13910, RT.8/RW.4, Rorotan, Cilincing, North Jakarta City, Jakarta 14140, Indonesia","created":"2020-02-01 11:48:00.452494"}, 
 {"lat":-6.1577803,"lng":106.9519088,"address":"JL. Rorotan Babek TNI, No. 2-3, Jakarta, 13910, RT.8/RW.4, Rorotan, Cilincing, North Jakarta City, Jakarta 14140, Indonesia","created":"2020-02-01 11:49:01.671734"}, 
 {"lat":-6.1577803,"lng":106.9519088,"address":"JL. Rorotan Babek TNI, No. 2-3, Jakarta, 13910, RT.8/RW.4, Rorotan, Cilincing, North Jakarta City, Jakarta 14140, Indonesia","created":"2020-02-01 11:50:05.704767"}, 
 {"lat":-6.1577803,"lng":106.9519088,"address":"JL. Rorotan Babek TNI, No. 2-3, Jakarta, 13910, RT.8/RW.4, Rorotan, Cilincing, North Jakarta City, Jakarta 14140, Indonesia","created":"2020-02-01 11:51:05.951529"}, 
 {"lat":-6.1577803,"lng":106.9519088,"address":"JL. Rorotan Babek TNI, No. 2-3, Jakarta, 13910, RT.8/RW.4, Rorotan, Cilincing, North Jakarta City, Jakarta 14140, Indonesia","created":"2020-02-01 11:52:06.480657"}, 
 {"lat":-6.1577803,"lng":106.9519088,"address":"JL. Rorotan Babek TNI, No. 2-3, Jakarta, 13910, RT.8/RW.4, Rorotan, Cilincing, North Jakarta City, Jakarta 14140, Indonesia","created":"2020-02-01 11:53:09.162315"}, 
 {"lat":-6.1577803,"lng":106.9519088,"address":"JL. Rorotan Babek TNI, No. 2-3, Jakarta, 13910, RT.8/RW.4, Rorotan, Cilincing, North Jakarta City, Jakarta 14140, Indonesia","created":"2020-02-01 11:54:09.749243"}, 
 {"lat":-6.1577803,"lng":106.9519088,"address":"JL. Rorotan Babek TNI, No. 2-3, Jakarta, 13910, RT.8/RW.4, Rorotan, Cilincing, North Jakarta City, Jakarta 14140, Indonesia","created":"2020-02-01 11:55:09.990403"}, 
 {"lat":-6.1577803,"lng":106.9519088,"address":"JL. Rorotan Babek TNI, No. 2-3, Jakarta, 13910, RT.8/RW.4, Rorotan, Cilincing, North Jakarta City, Jakarta 14140, Indonesia","created":"2020-02-01 11:56:08.105154"}, 
 {"lat":-6.1577803,"lng":106.9519088,"address":"JL. Rorotan Babek TNI, No. 2-3, Jakarta, 13910, RT.8/RW.4, Rorotan, Cilincing, North Jakarta City, Jakarta 14140, Indonesia","created":"2020-02-01 11:57:24.801627"}, 
 {"lat":-6.1577803,"lng":106.9519088,"address":"JL. Rorotan Babek TNI, No. 2-3, Jakarta, 13910, RT.8/RW.4, Rorotan, Cilincing, North Jakarta City, Jakarta 14140, Indonesia","created":"2020-02-01 11:59:02.975804"}, 
 {"lat":-6.1577803,"lng":106.9519088,"address":"JL. Rorotan Babek TNI, No. 2-3, Jakarta, 13910, RT.8/RW.4, Rorotan, Cilincing, North Jakarta City, Jakarta 14140, Indonesia","created":"2020-02-01 12:00:21.684091"}, 
 {"lat":-6.1577803,"lng":106.9519088,"address":"JL. Rorotan Babek TNI, No. 2-3, Jakarta, 13910, RT.8/RW.4, Rorotan, Cilincing, North Jakarta City, Jakarta 14140, Indonesia","created":"2020-02-01 12:01:25.702726"}, 
 {"lat":-6.1577803,"lng":106.9519088,"address":"JL. Rorotan Babek TNI, No. 2-3, Jakarta, 13910, RT.8/RW.4, Rorotan, Cilincing, North Jakarta City, Jakarta 14140, Indonesia","created":"2020-02-01 12:02:32.138417"}, 
 {"lat":-6.1577803,"lng":106.9519088,"address":"JL. Rorotan Babek TNI, No. 2-3, Jakarta, 13910, RT.8/RW.4, Rorotan, Cilincing, North Jakarta City, Jakarta 14140, Indonesia","created":"2020-02-01 12:03:53.889162"}, 
 {"lat":-6.159507,"lng":106.9502954,"address":"Jl. Cakung Industri Selatan 1 No.2, RT.8/RW.4, Rorotan, Kec. Cilincing, Kota Jkt Utara, Daerah Khusus Ibukota Jakarta 14140, Indonesia","created":"2020-02-01 12:05:06.944504"}, 
 {"lat":-6.159507,"lng":106.9502954,"address":"Jl. Cakung Industri Selatan 1 No.2, RT.8/RW.4, Rorotan, Kec. Cilincing, Kota Jkt Utara, Daerah Khusus Ibukota Jakarta 14140, Indonesia","created":"2020-02-01 12:06:08.081835"}, 
 {"lat":-6.1596801,"lng":106.9504482,"address":"Jl. Cakung Industri Selatan 1 No.2, RT.8/RW.4, Rorotan, Kec. Cilincing, Kota Jkt Utara, Daerah Khusus Ibukota Jakarta 14140, Indonesia","created":"2020-02-01 12:07:11.042444"}, 
 {"lat":-6.1596801,"lng":106.9504482,"address":"Jl. Cakung Industri Selatan 1 No.2, RT.8/RW.4, Rorotan, Kec. Cilincing, Kota Jkt Utara, Daerah Khusus Ibukota Jakarta 14140, Indonesia","created":"2020-02-01 12:08:39.86328"}, 
 {"lat":-6.1596801,"lng":106.9504482,"address":"Jl. Cakung Industri Selatan 1 No.2, RT.8/RW.4, Rorotan, Kec. Cilincing, Kota Jkt Utara, Daerah Khusus Ibukota Jakarta 14140, Indonesia","created":"2020-02-01 12:09:40.053848"}, 
 {"lat":-6.1596801,"lng":106.9504482,"address":"Jl. Cakung Industri Selatan 1 No.2, RT.8/RW.4, Rorotan, Kec. Cilincing, Kota Jkt Utara, Daerah Khusus Ibukota Jakarta 14140, Indonesia","created":"2020-02-01 12:10:47.71559"}, 
 {"lat":-6.1596801,"lng":106.9504482,"address":"Jl. Cakung Industri Selatan 1 No.2, RT.8/RW.4, Rorotan, Kec. Cilincing, Kota Jkt Utara, Daerah Khusus Ibukota Jakarta 14140, Indonesia","created":"2020-02-01 12:11:49.783032"}, 
 {"lat":-6.1596801,"lng":106.9504482,"address":"Jl. Cakung Industri Selatan 1 No.2, RT.8/RW.4, Rorotan, Kec. Cilincing, Kota Jkt Utara, Daerah Khusus Ibukota Jakarta 14140, Indonesia","created":"2020-02-01 12:12:50.008745"}, 
 {"lat":-6.159507,"lng":106.9502954,"address":"Jl. Cakung Industri Selatan 1 No.2, RT.8/RW.4, Rorotan, Kec. Cilincing, Kota Jkt Utara, Daerah Khusus Ibukota Jakarta 14140, Indonesia","created":"2020-02-01 12:14:10.032287"}, 
 {"lat":-6.159507,"lng":106.9502954,"address":"Jl. Cakung Industri Selatan 1 No.2, RT.8/RW.4, Rorotan, Kec. Cilincing, Kota Jkt Utara, Daerah Khusus Ibukota Jakarta 14140, Indonesia","created":"2020-02-01 12:15:10.279953"}, 
 {"lat":-6.159507,"lng":106.9502954,"address":"Jl. Cakung Industri Selatan 1 No.2, RT.8/RW.4, Rorotan, Kec. Cilincing, Kota Jkt Utara, Daerah Khusus Ibukota Jakarta 14140, Indonesia","created":"2020-02-01 12:16:08.97061"}, 
 {"lat":-6.159507,"lng":106.9502954,"address":"Jl. Cakung Industri Selatan 1 No.2, RT.8/RW.4, Rorotan, Kec. Cilincing, Kota Jkt Utara, Daerah Khusus Ibukota Jakarta 14140, Indonesia","created":"2020-02-01 12:17:32.108227"}, 
 {"lat":-6.159507,"lng":106.9502954,"address":"Jl. Cakung Industri Selatan 1 No.2, RT.8/RW.4, Rorotan, Kec. Cilincing, Kota Jkt Utara, Daerah Khusus Ibukota Jakarta 14140, Indonesia","created":"2020-02-01 12:18:32.778014"}, 
 {"lat":-6.159507,"lng":106.9502954,"address":"Jl. Cakung Industri Selatan 1 No.2, RT.8/RW.4, Rorotan, Kec. Cilincing, Kota Jkt Utara, Daerah Khusus Ibukota Jakarta 14140, Indonesia","created":"2020-02-01 12:19:50.681731"}, 
 {"lat":-6.159507,"lng":106.9502954,"address":"Jl. Cakung Industri Selatan 1 No.2, RT.8/RW.4, Rorotan, Kec. Cilincing, Kota Jkt Utara, Daerah Khusus Ibukota Jakarta 14140, Indonesia","created":"2020-02-01 12:20:50.871942"}, 
 {"lat":-6.159507,"lng":106.9502954,"address":"Jl. Cakung Industri Selatan 1 No.2, RT.8/RW.4, Rorotan, Kec. Cilincing, Kota Jkt Utara, Daerah Khusus Ibukota Jakarta 14140, Indonesia","created":"2020-02-01 12:21:51.601683"}, 
 {"lat":-6.159507,"lng":106.9502954,"address":"Jl. Cakung Industri Selatan 1 No.2, RT.8/RW.4, Rorotan, Kec. Cilincing, Kota Jkt Utara, Daerah Khusus Ibukota Jakarta 14140, Indonesia","created":"2020-02-01 12:23:32.433151"}, 
 {"lat":-6.159507,"lng":106.9502954,"address":"Jl. Cakung Industri Selatan 1 No.2, RT.8/RW.4, Rorotan, Kec. Cilincing, Kota Jkt Utara, Daerah Khusus Ibukota Jakarta 14140, Indonesia","created":"2020-02-01 12:24:32.999279"}, 
 {"lat":-6.159507,"lng":106.9502954,"address":"Jl. Cakung Industri Selatan 1 No.2, RT.8/RW.4, Rorotan, Kec. Cilincing, Kota Jkt Utara, Daerah Khusus Ibukota Jakarta 14140, Indonesia","created":"2020-02-01 12:25:36.249129"}, 
 {"lat":-6.159507,"lng":106.9502954,"address":"Jl. Cakung Industri Selatan 1 No.2, RT.8/RW.4, Rorotan, Kec. Cilincing, Kota Jkt Utara, Daerah Khusus Ibukota Jakarta 14140, Indonesia","created":"2020-02-01 12:26:36.440383"}, 
 {"lat":-6.159507,"lng":106.9502954,"address":"Jl. Cakung Industri Selatan 1 No.2, RT.8/RW.4, Rorotan, Kec. Cilincing, Kota Jkt Utara, Daerah Khusus Ibukota Jakarta 14140, Indonesia","created":"2020-02-01 12:27:36.629775"}, 
 {"lat":-6.159507,"lng":106.9502954,"address":"Jl. Cakung Industri Selatan 1 No.2, RT.8/RW.4, Rorotan, Kec. Cilincing, Kota Jkt Utara, Daerah Khusus Ibukota Jakarta 14140, Indonesia","created":"2020-02-01 12:28:36.832148"}, 
 {"lat":-6.159507,"lng":106.9502954,"address":"Jl. Cakung Industri Selatan 1 No.2, RT.8/RW.4, Rorotan, Kec. Cilincing, Kota Jkt Utara, Daerah Khusus Ibukota Jakarta 14140, Indonesia","created":"2020-02-01 12:30:01.134886"}, 
 {"lat":-6.159507,"lng":106.9502954,"address":"Jl. Cakung Industri Selatan 1 No.2, RT.8/RW.4, Rorotan, Kec. Cilincing, Kota Jkt Utara, Daerah Khusus Ibukota Jakarta 14140, Indonesia","created":"2020-02-01 12:31:10.139865"}, 
 {"lat":-6.159507,"lng":106.9502954,"address":"Jl. Cakung Industri Selatan 1 No.2, RT.8/RW.4, Rorotan, Kec. Cilincing, Kota Jkt Utara, Daerah Khusus Ibukota Jakarta 14140, Indonesia","created":"2020-02-01 12:32:32.139751"}, 
 {"lat":-6.159507,"lng":106.9502954,"address":"Jl. Cakung Industri Selatan 1 No.2, RT.8/RW.4, Rorotan, Kec. Cilincing, Kota Jkt Utara, Daerah Khusus Ibukota Jakarta 14140, Indonesia","created":"2020-02-01 12:33:44.184162"}, 
 {"lat":-6.1577803,"lng":106.9519088,"address":"JL. Rorotan Babek TNI, No. 2-3, Jakarta, 13910, RT.8/RW.4, Rorotan, Cilincing, North Jakarta City, Jakarta 14140, Indonesia","created":"2020-02-01 12:34:44.391662"}, 
 {"lat":-6.1577803,"lng":106.9519088,"address":"JL. Rorotan Babek TNI, No. 2-3, Jakarta, 13910, RT.8/RW.4, Rorotan, Cilincing, North Jakarta City, Jakarta 14140, Indonesia","created":"2020-02-01 12:36:15.209198"}, 
 {"lat":-6.1577803,"lng":106.9519088,"address":"JL. Rorotan Babek TNI, No. 2-3, Jakarta, 13910, RT.8/RW.4, Rorotan, Cilincing, North Jakarta City, Jakarta 14140, Indonesia","created":"2020-02-01 12:37:15.103247"}, 
 {"lat":-6.1577803,"lng":106.9519088,"address":"JL. Rorotan Babek TNI, No. 2-3, Jakarta, 13910, RT.8/RW.4, Rorotan, Cilincing, North Jakarta City, Jakarta 14140, Indonesia","created":"2020-02-01 12:38:15.298422"}, 
 {"lat":-6.1577803,"lng":106.9519088,"address":"JL. Rorotan Babek TNI, No. 2-3, Jakarta, 13910, RT.8/RW.4, Rorotan, Cilincing, North Jakarta City, Jakarta 14140, Indonesia","created":"2020-02-01 12:39:26.729283"}, 
 {"lat":-6.1577803,"lng":106.9519088,"address":"JL. Rorotan Babek TNI, No. 2-3, Jakarta, 13910, RT.8/RW.4, Rorotan, Cilincing, North Jakarta City, Jakarta 14140, Indonesia","created":"2020-02-01 12:40:43.048344"}, 
 {"lat":-6.1577803,"lng":106.9519088,"address":"JL. Rorotan Babek TNI, No. 2-3, Jakarta, 13910, RT.8/RW.4, Rorotan, Cilincing, North Jakarta City, Jakarta 14140, Indonesia","created":"2020-02-01 12:41:43.308432"}, 
 {"lat":-6.1577803,"lng":106.9519088,"address":"JL. Rorotan Babek TNI, No. 2-3, Jakarta, 13910, RT.8/RW.4, Rorotan, Cilincing, North Jakarta City, Jakarta 14140, Indonesia","created":"2020-02-01 12:43:14.263073"}, 
 {"lat":-6.1577803,"lng":106.9519088,"address":"JL. Rorotan Babek TNI, No. 2-3, Jakarta, 13910, RT.8/RW.4, Rorotan, Cilincing, North Jakarta City, Jakarta 14140, Indonesia","created":"2020-02-01 12:44:12.696472"}, 
 {"lat":-6.159507,"lng":106.9502954,"address":"Jl. Cakung Industri Selatan 1 No.2, RT.8/RW.4, Rorotan, Kec. Cilincing, Kota Jkt Utara, Daerah Khusus Ibukota Jakarta 14140, Indonesia","created":"2020-02-01 12:45:15.020449"}, 
 {"lat":-6.159507,"lng":106.9502954,"address":"Jl. Cakung Industri Selatan 1 No.2, RT.8/RW.4, Rorotan, Kec. Cilincing, Kota Jkt Utara, Daerah Khusus Ibukota Jakarta 14140, Indonesia","created":"2020-02-01 12:46:14.116562"}, 
 {"lat":-6.159507,"lng":106.9502954,"address":"Jl. Cakung Industri Selatan 1 No.2, RT.8/RW.4, Rorotan, Kec. Cilincing, Kota Jkt Utara, Daerah Khusus Ibukota Jakarta 14140, Indonesia","created":"2020-02-01 12:47:16.049613"}, 
 {"lat":-6.159507,"lng":106.9502954,"address":"Jl. Cakung Industri Selatan 1 No.2, RT.8/RW.4, Rorotan, Kec. Cilincing, Kota Jkt Utara, Daerah Khusus Ibukota Jakarta 14140, Indonesia","created":"2020-02-01 12:48:21.607524"}, 
 {"lat":-6.159507,"lng":106.9502954,"address":"Jl. Cakung Industri Selatan 1 No.2, RT.8/RW.4, Rorotan, Kec. Cilincing, Kota Jkt Utara, Daerah Khusus Ibukota Jakarta 14140, Indonesia","created":"2020-02-01 12:49:37.511481"}, 
 {"lat":-6.159507,"lng":106.9502954,"address":"Jl. Cakung Industri Selatan 1 No.2, RT.8/RW.4, Rorotan, Kec. Cilincing, Kota Jkt Utara, Daerah Khusus Ibukota Jakarta 14140, Indonesia","created":"2020-02-01 12:50:37.728379"}, 
 {"lat":-6.159507,"lng":106.9502954,"address":"Jl. Cakung Industri Selatan 1 No.2, RT.8/RW.4, Rorotan, Kec. Cilincing, Kota Jkt Utara, Daerah Khusus Ibukota Jakarta 14140, Indonesia","created":"2020-02-01 12:51:41.904377"}, 
 {"lat":-6.15958,"lng":106.9504576,"address":"Jl. Cakung Industri Selatan 1 No.2, RT.8/RW.4, Rorotan, Kec. Cilincing, Kota Jkt Utara, Daerah Khusus Ibukota Jakarta 14140, Indonesia","created":"2020-02-01 12:52:44.90553"}, 
 {"lat":-6.15958,"lng":106.9504576,"address":"Jl. Cakung Industri Selatan 1 No.2, RT.8/RW.4, Rorotan, Kec. Cilincing, Kota Jkt Utara, Daerah Khusus Ibukota Jakarta 14140, Indonesia","created":"2020-02-01 12:53:45.189069"}, 
 {"lat":-6.15958,"lng":106.9504576,"address":"Jl. Cakung Industri Selatan 1 No.2, RT.8/RW.4, Rorotan, Kec. Cilincing, Kota Jkt Utara, Daerah Khusus Ibukota Jakarta 14140, Indonesia","created":"2020-02-01 12:54:45.397428"}, 
 {"lat":-6.15958,"lng":106.9504576,"address":"Jl. Cakung Industri Selatan 1 No.2, RT.8/RW.4, Rorotan, Kec. Cilincing, Kota Jkt Utara, Daerah Khusus Ibukota Jakarta 14140, Indonesia","created":"2020-02-01 12:55:45.994321"}, 
 {"lat":-6.15958,"lng":106.9504576,"address":"Jl. Cakung Industri Selatan 1 No.2, RT.8/RW.4, Rorotan, Kec. Cilincing, Kota Jkt Utara, Daerah Khusus Ibukota Jakarta 14140, Indonesia","created":"2020-02-01 12:56:46.245429"}, 
 {"lat":-6.15958,"lng":106.9504576,"address":"Jl. Cakung Industri Selatan 1 No.2, RT.8/RW.4, Rorotan, Kec. Cilincing, Kota Jkt Utara, Daerah Khusus Ibukota Jakarta 14140, Indonesia","created":"2020-02-01 12:57:44.098045"}, 
 {"lat":-6.15958,"lng":106.9504576,"address":"Jl. Cakung Industri Selatan 1 No.2, RT.8/RW.4, Rorotan, Kec. Cilincing, Kota Jkt Utara, Daerah Khusus Ibukota Jakarta 14140, Indonesia","created":"2020-02-01 12:59:09.049528"}, 
 {"lat":-6.15958,"lng":106.9504576,"address":"Jl. Cakung Industri Selatan 1 No.2, RT.8/RW.4, Rorotan, Kec. Cilincing, Kota Jkt Utara, Daerah Khusus Ibukota Jakarta 14140, Indonesia","created":"2020-02-01 13:00:09.489498"}, 
 {"lat":-6.15958,"lng":106.9504576,"address":"Jl. Cakung Industri Selatan 1 No.2, RT.8/RW.4, Rorotan, Kec. Cilincing, Kota Jkt Utara, Daerah Khusus Ibukota Jakarta 14140, Indonesia","created":"2020-02-01 13:01:46.282793"}, 
 {"lat":-6.1577803,"lng":106.9519088,"address":"JL. Rorotan Babek TNI, No. 2-3, Jakarta, 13910, RT.8/RW.4, Rorotan, Cilincing, North Jakarta City, Jakarta 14140, Indonesia","created":"2020-02-01 13:02:46.460945"}, 
 {"lat":-6.1577803,"lng":106.9519088,"address":"JL. Rorotan Babek TNI, No. 2-3, Jakarta, 13910, RT.8/RW.4, Rorotan, Cilincing, North Jakarta City, Jakarta 14140, Indonesia","created":"2020-02-01 13:03:50.764246"}, 
 {"lat":-6.1577803,"lng":106.9519088,"address":"JL. Rorotan Babek TNI, No. 2-3, Jakarta, 13910, RT.8/RW.4, Rorotan, Cilincing, North Jakarta City, Jakarta 14140, Indonesia","created":"2020-02-01 13:05:08.265664"}, 
 {"lat":-6.1577803,"lng":106.9519088,"address":"JL. Rorotan Babek TNI, No. 2-3, Jakarta, 13910, RT.8/RW.4, Rorotan, Cilincing, North Jakarta City, Jakarta 14140, Indonesia","created":"2020-02-01 13:06:08.697313"}, 
 {"lat":-6.1577803,"lng":106.9519088,"address":"JL. Rorotan Babek TNI, No. 2-3, Jakarta, 13910, RT.8/RW.4, Rorotan, Cilincing, North Jakarta City, Jakarta 14140, Indonesia","created":"2020-02-01 13:07:09.302457"}, 
 {"lat":-6.1577803,"lng":106.9519088,"address":"JL. Rorotan Babek TNI, No. 2-3, Jakarta, 13910, RT.8/RW.4, Rorotan, Cilincing, North Jakarta City, Jakarta 14140, Indonesia","created":"2020-02-01 13:08:15.19199"}, 
 {"lat":-6.1577803,"lng":106.9519088,"address":"JL. Rorotan Babek TNI, No. 2-3, Jakarta, 13910, RT.8/RW.4, Rorotan, Cilincing, North Jakarta City, Jakarta 14140, Indonesia","created":"2020-02-01 13:09:15.581833"}, 
 {"lat":-6.1577803,"lng":106.9519088,"address":"JL. Rorotan Babek TNI, No. 2-3, Jakarta, 13910, RT.8/RW.4, Rorotan, Cilincing, North Jakarta City, Jakarta 14140, Indonesia","created":"2020-02-01 13:10:17.762202"}, 
 {"lat":-6.1614017,"lng":106.9581809,"address":"Jl. Rorotan IX Gg. 4 No.12, RW.10, Cakung Tim., Kec. Cakung, Kota Jakarta Timur, Daerah Khusus Ibukota Jakarta 13910, Indonesia","created":"2020-02-01 13:12:52.312082"}, 
 {"lat":-6.1614017,"lng":106.9581809,"address":"Jl. Rorotan IX Gg. 4 No.12, RW.10, Cakung Tim., Kec. Cakung, Kota Jakarta Timur, Daerah Khusus Ibukota Jakarta 13910, Indonesia","created":"2020-02-01 13:14:10.042397"}, 
 {"lat":-6.1614017,"lng":106.9581809,"address":"Jl. Rorotan IX Gg. 4 No.12, RW.10, Cakung Tim., Kec. Cakung, Kota Jakarta Timur, Daerah Khusus Ibukota Jakarta 13910, Indonesia","created":"2020-02-01 13:15:13.054037"}, 
 {"lat":-6.1614017,"lng":106.9581809,"address":"Jl. Rorotan IX Gg. 4 No.12, RW.10, Cakung Tim., Kec. Cakung, Kota Jakarta Timur, Daerah Khusus Ibukota Jakarta 13910, Indonesia","created":"2020-02-01 13:16:13.866121"}, 
 {"lat":-6.1614017,"lng":106.9581809,"address":"Jl. Rorotan IX Gg. 4 No.12, RW.10, Cakung Tim., Kec. Cakung, Kota Jakarta Timur, Daerah Khusus Ibukota Jakarta 13910, Indonesia","created":"2020-02-01 13:17:13.374811"}, 
 {"lat":-6.1614017,"lng":106.9581809,"address":"Jl. Rorotan IX Gg. 4 No.12, RW.10, Cakung Tim., Kec. Cakung, Kota Jakarta Timur, Daerah Khusus Ibukota Jakarta 13910, Indonesia","created":"2020-02-01 13:18:17.759699"}, 
 {"lat":-6.1614017,"lng":106.9581809,"address":"Jl. Rorotan IX Gg. 4 No.12, RW.10, Cakung Tim., Kec. Cakung, Kota Jakarta Timur, Daerah Khusus Ibukota Jakarta 13910, Indonesia","created":"2020-02-01 13:19:19.940026"}, 
 {"lat":-6.1614017,"lng":106.9581809,"address":"Jl. Rorotan IX Gg. 4 No.12, RW.10, Cakung Tim., Kec. Cakung, Kota Jakarta Timur, Daerah Khusus Ibukota Jakarta 13910, Indonesia","created":"2020-02-01 13:20:24.190742"}, 
 {"lat":-6.1577803,"lng":106.9519088,"address":"JL. Rorotan Babek TNI, No. 2-3, Jakarta, 13910, RT.8/RW.4, Rorotan, Cilincing, North Jakarta City, Jakarta 14140, Indonesia","created":"2020-02-01 13:21:22.640019"}, 
 {"lat":-6.1577803,"lng":106.9519088,"address":"JL. Rorotan Babek TNI, No. 2-3, Jakarta, 13910, RT.8/RW.4, Rorotan, Cilincing, North Jakarta City, Jakarta 14140, Indonesia","created":"2020-02-01 13:22:34.742205"}, 
 {"lat":-6.1577803,"lng":106.9519088,"address":"JL. Rorotan Babek TNI, No. 2-3, Jakarta, 13910, RT.8/RW.4, Rorotan, Cilincing, North Jakarta City, Jakarta 14140, Indonesia","created":"2020-02-01 13:23:33.914875"}, 
 {"lat":-6.1577803,"lng":106.9519088,"address":"JL. Rorotan Babek TNI, No. 2-3, Jakarta, 13910, RT.8/RW.4, Rorotan, Cilincing, North Jakarta City, Jakarta 14140, Indonesia","created":"2020-02-01 13:24:34.141222"}, 
 {"lat":-6.1577803,"lng":106.9519088,"address":"JL. Rorotan Babek TNI, No. 2-3, Jakarta, 13910, RT.8/RW.4, Rorotan, Cilincing, North Jakarta City, Jakarta 14140, Indonesia","created":"2020-02-01 13:25:35.368956"}, 
 {"lat":-6.1577803,"lng":106.9519088,"address":"JL. Rorotan Babek TNI, No. 2-3, Jakarta, 13910, RT.8/RW.4, Rorotan, Cilincing, North Jakarta City, Jakarta 14140, Indonesia","created":"2020-02-01 13:26:49.981667"}, 
 {"lat":-6.1577803,"lng":106.9519088,"address":"JL. Rorotan Babek TNI, No. 2-3, Jakarta, 13910, RT.8/RW.4, Rorotan, Cilincing, North Jakarta City, Jakarta 14140, Indonesia","created":"2020-02-01 13:27:53.420902"}, 
 {"lat":-6.1577803,"lng":106.9519088,"address":"JL. Rorotan Babek TNI, No. 2-3, Jakarta, 13910, RT.8/RW.4, Rorotan, Cilincing, North Jakarta City, Jakarta 14140, Indonesia","created":"2020-02-01 13:29:00.95767"}, 
 {"lat":-6.1577803,"lng":106.9519088,"address":"JL. Rorotan Babek TNI, No. 2-3, Jakarta, 13910, RT.8/RW.4, Rorotan, Cilincing, North Jakarta City, Jakarta 14140, Indonesia","created":"2020-02-01 13:30:01.503626"}, 
 {"lat":-6.1596667,"lng":106.9503072,"address":"Jl. Cakung Industri Selatan 1 No.2, RT.8/RW.4, Rorotan, Kec. Cilincing, Kota Jkt Utara, Daerah Khusus Ibukota Jakarta 14140, Indonesia","created":"2020-02-01 13:31:02.237045"}, 
 {"lat":-6.1596667,"lng":106.9503072,"address":"Jl. Cakung Industri Selatan 1 No.2, RT.8/RW.4, Rorotan, Kec. Cilincing, Kota Jkt Utara, Daerah Khusus Ibukota Jakarta 14140, Indonesia","created":"2020-02-01 13:32:02.663601"}, 
 {"lat":-6.1596667,"lng":106.9503072,"address":"Jl. Cakung Industri Selatan 1 No.2, RT.8/RW.4, Rorotan, Kec. Cilincing, Kota Jkt Utara, Daerah Khusus Ibukota Jakarta 14140, Indonesia","created":"2020-02-01 13:33:02.892478"}, 
 {"lat":-6.1596667,"lng":106.9503072,"address":"Jl. Cakung Industri Selatan 1 No.2, RT.8/RW.4, Rorotan, Kec. Cilincing, Kota Jkt Utara, Daerah Khusus Ibukota Jakarta 14140, Indonesia","created":"2020-02-01 13:34:02.579181"}, 
 {"lat":-6.1596667,"lng":106.9503072,"address":"Jl. Cakung Industri Selatan 1 No.2, RT.8/RW.4, Rorotan, Kec. Cilincing, Kota Jkt Utara, Daerah Khusus Ibukota Jakarta 14140, Indonesia","created":"2020-02-01 13:35:03.253116"}, 
 {"lat":-6.1596667,"lng":106.9503072,"address":"Jl. Cakung Industri Selatan 1 No.2, RT.8/RW.4, Rorotan, Kec. Cilincing, Kota Jkt Utara, Daerah Khusus Ibukota Jakarta 14140, Indonesia","created":"2020-02-01 13:36:06.178894"}, 
 {"lat":-6.1596667,"lng":106.9503072,"address":"Jl. Cakung Industri Selatan 1 No.2, RT.8/RW.4, Rorotan, Kec. Cilincing, Kota Jkt Utara, Daerah Khusus Ibukota Jakarta 14140, Indonesia","created":"2020-02-01 13:37:29.920999"}, 
 {"lat":-6.1596667,"lng":106.9503072,"address":"Jl. Cakung Industri Selatan 1 No.2, RT.8/RW.4, Rorotan, Kec. Cilincing, Kota Jkt Utara, Daerah Khusus Ibukota Jakarta 14140, Indonesia","created":"2020-02-01 13:38:40.88902"}, 
 {"lat":-6.1596667,"lng":106.9503072,"address":"Jl. Cakung Industri Selatan 1 No.2, RT.8/RW.4, Rorotan, Kec. Cilincing, Kota Jkt Utara, Daerah Khusus Ibukota Jakarta 14140, Indonesia","created":"2020-02-01 13:39:40.031021"}, 
 {"lat":-6.159507,"lng":106.9502954,"address":"Jl. Cakung Industri Selatan 1 No.2, RT.8/RW.4, Rorotan, Kec. Cilincing, Kota Jkt Utara, Daerah Khusus Ibukota Jakarta 14140, Indonesia","created":"2020-02-01 13:40:40.240606"}, 
 {"lat":-6.159507,"lng":106.9502954,"address":"Jl. Cakung Industri Selatan 1 No.2, RT.8/RW.4, Rorotan, Kec. Cilincing, Kota Jkt Utara, Daerah Khusus Ibukota Jakarta 14140, Indonesia","created":"2020-02-01 13:41:46.131901"}, 
 {"lat":-6.159507,"lng":106.9502954,"address":"Jl. Cakung Industri Selatan 1 No.2, RT.8/RW.4, Rorotan, Kec. Cilincing, Kota Jkt Utara, Daerah Khusus Ibukota Jakarta 14140, Indonesia","created":"2020-02-01 13:43:18.091304"}, 
 {"lat":-6.159507,"lng":106.9502954,"address":"Jl. Cakung Industri Selatan 1 No.2, RT.8/RW.4, Rorotan, Kec. Cilincing, Kota Jkt Utara, Daerah Khusus Ibukota Jakarta 14140, Indonesia","created":"2020-02-01 13:44:26.882599"}, 
 {"lat":-6.159507,"lng":106.9502954,"address":"Jl. Cakung Industri Selatan 1 No.2, RT.8/RW.4, Rorotan, Kec. Cilincing, Kota Jkt Utara, Daerah Khusus Ibukota Jakarta 14140, Indonesia","created":"2020-02-01 13:45:29.908909"}, 
 {"lat":-6.159507,"lng":106.9502954,"address":"Jl. Cakung Industri Selatan 1 No.2, RT.8/RW.4, Rorotan, Kec. Cilincing, Kota Jkt Utara, Daerah Khusus Ibukota Jakarta 14140, Indonesia","created":"2020-02-01 13:46:30.252807"}, 
 {"lat":-6.159507,"lng":106.9502954,"address":"Jl. Cakung Industri Selatan 1 No.2, RT.8/RW.4, Rorotan, Kec. Cilincing, Kota Jkt Utara, Daerah Khusus Ibukota Jakarta 14140, Indonesia","created":"2020-02-01 13:47:30.323159"}, 
 {"lat":-6.159507,"lng":106.9502954,"address":"Jl. Cakung Industri Selatan 1 No.2, RT.8/RW.4, Rorotan, Kec. Cilincing, Kota Jkt Utara, Daerah Khusus Ibukota Jakarta 14140, Indonesia","created":"2020-02-01 13:48:30.503998"}, 
 {"lat":-6.159507,"lng":106.9502954,"address":"Jl. Cakung Industri Selatan 1 No.2, RT.8/RW.4, Rorotan, Kec. Cilincing, Kota Jkt Utara, Daerah Khusus Ibukota Jakarta 14140, Indonesia","created":"2020-02-01 13:49:52.657867"}, 
 {"lat":-6.159507,"lng":106.9502954,"address":"Jl. Cakung Industri Selatan 1 No.2, RT.8/RW.4, Rorotan, Kec. Cilincing, Kota Jkt Utara, Daerah Khusus Ibukota Jakarta 14140, Indonesia","created":"2020-02-01 13:50:58.886582"}, 
 {"lat":-6.159507,"lng":106.9502954,"address":"Jl. Cakung Industri Selatan 1 No.2, RT.8/RW.4, Rorotan, Kec. Cilincing, Kota Jkt Utara, Daerah Khusus Ibukota Jakarta 14140, Indonesia","created":"2020-02-01 13:52:30.793404"}, 
 {"lat":-6.1577803,"lng":106.9519088,"address":"JL. Rorotan Babek TNI, No. 2-3, Jakarta, 13910, RT.8/RW.4, Rorotan, Cilincing, North Jakarta City, Jakarta 14140, Indonesia","created":"2020-02-01 13:53:31.02229"}, 
 {"lat":-6.1577803,"lng":106.9519088,"address":"JL. Rorotan Babek TNI, No. 2-3, Jakarta, 13910, RT.8/RW.4, Rorotan, Cilincing, North Jakarta City, Jakarta 14140, Indonesia","created":"2020-02-01 13:54:31.741034"}, 
 {"lat":-6.1577803,"lng":106.9519088,"address":"JL. Rorotan Babek TNI, No. 2-3, Jakarta, 13910, RT.8/RW.4, Rorotan, Cilincing, North Jakarta City, Jakarta 14140, Indonesia","created":"2020-02-01 13:55:31.80982"}, 
 {"lat":-6.1577803,"lng":106.9519088,"address":"JL. Rorotan Babek TNI, No. 2-3, Jakarta, 13910, RT.8/RW.4, Rorotan, Cilincing, North Jakarta City, Jakarta 14140, Indonesia","created":"2020-02-01 13:56:34.205753"}, 
 {"lat":-6.1577803,"lng":106.9519088,"address":"JL. Rorotan Babek TNI, No. 2-3, Jakarta, 13910, RT.8/RW.4, Rorotan, Cilincing, North Jakarta City, Jakarta 14140, Indonesia","created":"2020-02-01 13:57:34.399807"}, 
 {"lat":-6.1577803,"lng":106.9519088,"address":"JL. Rorotan Babek TNI, No. 2-3, Jakarta, 13910, RT.8/RW.4, Rorotan, Cilincing, North Jakarta City, Jakarta 14140, Indonesia","created":"2020-02-01 13:58:45.355199"}, 
 {"lat":-6.1577803,"lng":106.9519088,"address":"JL. Rorotan Babek TNI, No. 2-3, Jakarta, 13910, RT.8/RW.4, Rorotan, Cilincing, North Jakarta City, Jakarta 14140, Indonesia","created":"2020-02-01 13:59:45.548917"}, 
 {"lat":-6.1577803,"lng":106.9519088,"address":"JL. Rorotan Babek TNI, No. 2-3, Jakarta, 13910, RT.8/RW.4, Rorotan, Cilincing, North Jakarta City, Jakarta 14140, Indonesia","created":"2020-02-01 14:01:20.286513"}, 
 {"lat":-6.1577803,"lng":106.9519088,"address":"JL. Rorotan Babek TNI, No. 2-3, Jakarta, 13910, RT.8/RW.4, Rorotan, Cilincing, North Jakarta City, Jakarta 14140, Indonesia","created":"2020-02-01 14:02:19.427847"}, 
 {"lat":-6.1577803,"lng":106.9519088,"address":"JL. Rorotan Babek TNI, No. 2-3, Jakarta, 13910, RT.8/RW.4, Rorotan, Cilincing, North Jakarta City, Jakarta 14140, Indonesia","created":"2020-02-01 14:03:19.668695"}, 
 {"lat":-6.1577803,"lng":106.9519088,"address":"JL. Rorotan Babek TNI, No. 2-3, Jakarta, 13910, RT.8/RW.4, Rorotan, Cilincing, North Jakarta City, Jakarta 14140, Indonesia","created":"2020-02-01 14:04:20.138276"}, 
 {"lat":-6.1577803,"lng":106.9519088,"address":"JL. Rorotan Babek TNI, No. 2-3, Jakarta, 13910, RT.8/RW.4, Rorotan, Cilincing, North Jakarta City, Jakarta 14140, Indonesia","created":"2020-02-01 14:05:33.25893"}, 
 {"lat":-6.1577803,"lng":106.9519088,"address":"JL. Rorotan Babek TNI, No. 2-3, Jakarta, 13910, RT.8/RW.4, Rorotan, Cilincing, North Jakarta City, Jakarta 14140, Indonesia","created":"2020-02-01 14:07:00.873658"}, 
 {"lat":-6.159507,"lng":106.9502954,"address":"Jl. Cakung Industri Selatan 1 No.2, RT.8/RW.4, Rorotan, Kec. Cilincing, Kota Jkt Utara, Daerah Khusus Ibukota Jakarta 14140, Indonesia","created":"2020-02-01 14:08:01.315198"}, 
 {"lat":-6.159507,"lng":106.9502954,"address":"Jl. Cakung Industri Selatan 1 No.2, RT.8/RW.4, Rorotan, Kec. Cilincing, Kota Jkt Utara, Daerah Khusus Ibukota Jakarta 14140, Indonesia","created":"2020-02-01 14:09:01.800173"}, 
 {"lat":-6.1595276,"lng":106.950354,"address":"Jl. Cakung Industri Selatan 1 No.2, RT.8/RW.4, Rorotan, Kec. Cilincing, Kota Jkt Utara, Daerah Khusus Ibukota Jakarta 14140, Indonesia","created":"2020-02-01 14:11:20.531306"}, 
 {"lat":-6.1595276,"lng":106.950354,"address":"Jl. Cakung Industri Selatan 1 No.2, RT.8/RW.4, Rorotan, Kec. Cilincing, Kota Jkt Utara, Daerah Khusus Ibukota Jakarta 14140, Indonesia","created":"2020-02-01 14:12:39.486232"}, 
 {"lat":-6.1595276,"lng":106.950354,"address":"Jl. Cakung Industri Selatan 1 No.2, RT.8/RW.4, Rorotan, Kec. Cilincing, Kota Jkt Utara, Daerah Khusus Ibukota Jakarta 14140, Indonesia","created":"2020-02-01 14:14:08.985871"}, 
 {"lat":-6.1595276,"lng":106.950354,"address":"Jl. Cakung Industri Selatan 1 No.2, RT.8/RW.4, Rorotan, Kec. Cilincing, Kota Jkt Utara, Daerah Khusus Ibukota Jakarta 14140, Indonesia","created":"2020-02-01 14:15:10.691304"}, 
 {"lat":-6.1595276,"lng":106.950354,"address":"Jl. Cakung Industri Selatan 1 No.2, RT.8/RW.4, Rorotan, Kec. Cilincing, Kota Jkt Utara, Daerah Khusus Ibukota Jakarta 14140, Indonesia","created":"2020-02-01 14:16:10.218804"}, 
 {"lat":-6.1595276,"lng":106.950354,"address":"Jl. Cakung Industri Selatan 1 No.2, RT.8/RW.4, Rorotan, Kec. Cilincing, Kota Jkt Utara, Daerah Khusus Ibukota Jakarta 14140, Indonesia","created":"2020-02-01 14:17:11.178009"}, 
 {"lat":-6.1595276,"lng":106.950354,"address":"Jl. Cakung Industri Selatan 1 No.2, RT.8/RW.4, Rorotan, Kec. Cilincing, Kota Jkt Utara, Daerah Khusus Ibukota Jakarta 14140, Indonesia","created":"2020-02-01 14:18:27.260853"}, 
 {"lat":-6.1595276,"lng":106.950354,"address":"Jl. Cakung Industri Selatan 1 No.2, RT.8/RW.4, Rorotan, Kec. Cilincing, Kota Jkt Utara, Daerah Khusus Ibukota Jakarta 14140, Indonesia","created":"2020-02-01 14:19:27.642836"}, 
 {"lat":-6.1595276,"lng":106.950354,"address":"Jl. Cakung Industri Selatan 1 No.2, RT.8/RW.4, Rorotan, Kec. Cilincing, Kota Jkt Utara, Daerah Khusus Ibukota Jakarta 14140, Indonesia","created":"2020-02-01 14:20:27.84462"}, 
 {"lat":-6.1595276,"lng":106.950354,"address":"Jl. Cakung Industri Selatan 1 No.2, RT.8/RW.4, Rorotan, Kec. Cilincing, Kota Jkt Utara, Daerah Khusus Ibukota Jakarta 14140, Indonesia","created":"2020-02-01 14:21:28.096483"}, 
 {"lat":-6.1577803,"lng":106.9519088,"address":"JL. Rorotan Babek TNI, No. 2-3, Jakarta, 13910, RT.8/RW.4, Rorotan, Cilincing, North Jakarta City, Jakarta 14140, Indonesia","created":"2020-02-01 14:22:28.282766"}, 
 {"lat":-6.1577803,"lng":106.9519088,"address":"JL. Rorotan Babek TNI, No. 2-3, Jakarta, 13910, RT.8/RW.4, Rorotan, Cilincing, North Jakarta City, Jakarta 14140, Indonesia","created":"2020-02-01 14:23:31.045699"}, 
 {"lat":-6.1577803,"lng":106.9519088,"address":"JL. Rorotan Babek TNI, No. 2-3, Jakarta, 13910, RT.8/RW.4, Rorotan, Cilincing, North Jakarta City, Jakarta 14140, Indonesia","created":"2020-02-01 14:25:12.896566"}, 
 {"lat":-6.1577803,"lng":106.9519088,"address":"JL. Rorotan Babek TNI, No. 2-3, Jakarta, 13910, RT.8/RW.4, Rorotan, Cilincing, North Jakarta City, Jakarta 14140, Indonesia","created":"2020-02-01 14:26:14.020791"}, 
 {"lat":-6.1577803,"lng":106.9519088,"address":"JL. Rorotan Babek TNI, No. 2-3, Jakarta, 13910, RT.8/RW.4, Rorotan, Cilincing, North Jakarta City, Jakarta 14140, Indonesia","created":"2020-02-01 14:27:14.35889"}, 
 {"lat":-6.1577803,"lng":106.9519088,"address":"JL. Rorotan Babek TNI, No. 2-3, Jakarta, 13910, RT.8/RW.4, Rorotan, Cilincing, North Jakarta City, Jakarta 14140, Indonesia","created":"2020-02-01 14:28:16.669575"}, 
 {"lat":-6.1577803,"lng":106.9519088,"address":"JL. Rorotan Babek TNI, No. 2-3, Jakarta, 13910, RT.8/RW.4, Rorotan, Cilincing, North Jakarta City, Jakarta 14140, Indonesia","created":"2020-02-01 14:29:44.839219"}, 
 {"lat":-6.1577803,"lng":106.9519088,"address":"JL. Rorotan Babek TNI, No. 2-3, Jakarta, 13910, RT.8/RW.4, Rorotan, Cilincing, North Jakarta City, Jakarta 14140, Indonesia","created":"2020-02-01 14:31:06.268919"}, 
 {"lat":-6.1577803,"lng":106.9519088,"address":"JL. Rorotan Babek TNI, No. 2-3, Jakarta, 13910, RT.8/RW.4, Rorotan, Cilincing, North Jakarta City, Jakarta 14140, Indonesia","created":"2020-02-01 14:32:06.647294"}, 
 {"lat":-6.1577803,"lng":106.9519088,"address":"JL. Rorotan Babek TNI, No. 2-3, Jakarta, 13910, RT.8/RW.4, Rorotan, Cilincing, North Jakarta City, Jakarta 14140, Indonesia","created":"2020-02-01 14:33:05.857627"}, 
 {"lat":-6.1577803,"lng":106.9519088,"address":"JL. Rorotan Babek TNI, No. 2-3, Jakarta, 13910, RT.8/RW.4, Rorotan, Cilincing, North Jakarta City, Jakarta 14140, Indonesia","created":"2020-02-01 14:34:08.222832"}, 
 {"lat":-6.1577803,"lng":106.9519088,"address":"JL. Rorotan Babek TNI, No. 2-3, Jakarta, 13910, RT.8/RW.4, Rorotan, Cilincing, North Jakarta City, Jakarta 14140, Indonesia","created":"2020-02-01 14:35:08.486468"}, 
 {"lat":-6.1623394,"lng":106.9489573,"address":"Jl. Rorotan 2 No.8, RT.1/RW.4, Rorotan, Kec. Cilincing, Kota Jakarta Timur, Daerah Khusus Ibukota Jakarta 14140, Indonesia","created":"2020-02-01 14:36:08.796973"}, 
 {"lat":-6.1623394,"lng":106.9489573,"address":"Jl. Rorotan 2 No.8, RT.1/RW.4, Rorotan, Kec. Cilincing, Kota Jakarta Timur, Daerah Khusus Ibukota Jakarta 14140, Indonesia","created":"2020-02-01 14:37:58.207496"}, 
 {"lat":-6.159507,"lng":106.9502954,"address":"Jl. Cakung Industri Selatan 1 No.2, RT.8/RW.4, Rorotan, Kec. Cilincing, Kota Jkt Utara, Daerah Khusus Ibukota Jakarta 14140, Indonesia","created":"2020-02-01 14:39:26.123776"}, 
 {"lat":-6.159507,"lng":106.9502954,"address":"Jl. Cakung Industri Selatan 1 No.2, RT.8/RW.4, Rorotan, Kec. Cilincing, Kota Jkt Utara, Daerah Khusus Ibukota Jakarta 14140, Indonesia","created":"2020-02-01 14:40:27.549064"}, 
 {"lat":-6.159507,"lng":106.9502954,"address":"Jl. Cakung Industri Selatan 1 No.2, RT.8/RW.4, Rorotan, Kec. Cilincing, Kota Jkt Utara, Daerah Khusus Ibukota Jakarta 14140, Indonesia","created":"2020-02-01 14:41:28.632272"}, 
 {"lat":-6.159507,"lng":106.9502954,"address":"Jl. Cakung Industri Selatan 1 No.2, RT.8/RW.4, Rorotan, Kec. Cilincing, Kota Jkt Utara, Daerah Khusus Ibukota Jakarta 14140, Indonesia","created":"2020-02-01 14:42:28.766331"}, 
 {"lat":-6.159507,"lng":106.9502954,"address":"Jl. Cakung Industri Selatan 1 No.2, RT.8/RW.4, Rorotan, Kec. Cilincing, Kota Jkt Utara, Daerah Khusus Ibukota Jakarta 14140, Indonesia","created":"2020-02-01 14:43:29.401622"}, 
 {"lat":-6.159507,"lng":106.9502954,"address":"Jl. Cakung Industri Selatan 1 No.2, RT.8/RW.4, Rorotan, Kec. Cilincing, Kota Jkt Utara, Daerah Khusus Ibukota Jakarta 14140, Indonesia","created":"2020-02-01 14:44:32.849406"}, 
 {"lat":-6.159507,"lng":106.9502954,"address":"Jl. Cakung Industri Selatan 1 No.2, RT.8/RW.4, Rorotan, Kec. Cilincing, Kota Jkt Utara, Daerah Khusus Ibukota Jakarta 14140, Indonesia","created":"2020-02-01 14:45:33.320868"}, 
 {"lat":-6.159507,"lng":106.9502954,"address":"Jl. Cakung Industri Selatan 1 No.2, RT.8/RW.4, Rorotan, Kec. Cilincing, Kota Jkt Utara, Daerah Khusus Ibukota Jakarta 14140, Indonesia","created":"2020-02-01 14:46:33.549724"}, 
 {"lat":-6.1577803,"lng":106.9519088,"address":"JL. Rorotan Babek TNI, No. 2-3, Jakarta, 13910, RT.8/RW.4, Rorotan, Cilincing, North Jakarta City, Jakarta 14140, Indonesia","created":"2020-02-01 14:47:35.166454"}, 
 {"lat":-6.1577803,"lng":106.9519088,"address":"JL. Rorotan Babek TNI, No. 2-3, Jakarta, 13910, RT.8/RW.4, Rorotan, Cilincing, North Jakarta City, Jakarta 14140, Indonesia","created":"2020-02-01 14:48:35.389283"}, 
 {"lat":-6.1577803,"lng":106.9519088,"address":"JL. Rorotan Babek TNI, No. 2-3, Jakarta, 13910, RT.8/RW.4, Rorotan, Cilincing, North Jakarta City, Jakarta 14140, Indonesia","created":"2020-02-01 14:49:45.164472"}, 
 {"lat":-6.1577803,"lng":106.9519088,"address":"JL. Rorotan Babek TNI, No. 2-3, Jakarta, 13910, RT.8/RW.4, Rorotan, Cilincing, North Jakarta City, Jakarta 14140, Indonesia","created":"2020-02-01 14:50:45.428231"}, 
 {"lat":-6.1577803,"lng":106.9519088,"address":"JL. Rorotan Babek TNI, No. 2-3, Jakarta, 13910, RT.8/RW.4, Rorotan, Cilincing, North Jakarta City, Jakarta 14140, Indonesia","created":"2020-02-01 14:51:46.212211"}, 
 {"lat":-6.1577803,"lng":106.9519088,"address":"JL. Rorotan Babek TNI, No. 2-3, Jakarta, 13910, RT.8/RW.4, Rorotan, Cilincing, North Jakarta City, Jakarta 14140, Indonesia","created":"2020-02-01 14:52:46.351794"}, 
 {"lat":-6.1577803,"lng":106.9519088,"address":"JL. Rorotan Babek TNI, No. 2-3, Jakarta, 13910, RT.8/RW.4, Rorotan, Cilincing, North Jakarta City, Jakarta 14140, Indonesia","created":"2020-02-01 14:53:48.204133"}, 
 {"lat":-6.1577803,"lng":106.9519088,"address":"JL. Rorotan Babek TNI, No. 2-3, Jakarta, 13910, RT.8/RW.4, Rorotan, Cilincing, North Jakarta City, Jakarta 14140, Indonesia","created":"2020-02-01 14:54:54.827447"}, 
 {"lat":-6.1577803,"lng":106.9519088,"address":"JL. Rorotan Babek TNI, No. 2-3, Jakarta, 13910, RT.8/RW.4, Rorotan, Cilincing, North Jakarta City, Jakarta 14140, Indonesia","created":"2020-02-01 14:55:55.868247"}, 
 {"lat":-6.1595193,"lng":106.9499193,"address":"Jl. Cakung Industri Selatan 1 No.2, RT.8/RW.4, Rorotan, Kec. Cilincing, Kota Jkt Utara, Daerah Khusus Ibukota Jakarta 14140, Indonesia","created":"2020-02-01 14:56:56.167038"}, 
 {"lat":-6.1595193,"lng":106.9499193,"address":"Jl. Cakung Industri Selatan 1 No.2, RT.8/RW.4, Rorotan, Kec. Cilincing, Kota Jkt Utara, Daerah Khusus Ibukota Jakarta 14140, Indonesia","created":"2020-02-01 14:57:58.466891"}, 
 {"lat":-6.1595193,"lng":106.9499193,"address":"Jl. Cakung Industri Selatan 1 No.2, RT.8/RW.4, Rorotan, Kec. Cilincing, Kota Jkt Utara, Daerah Khusus Ibukota Jakarta 14140, Indonesia","created":"2020-02-01 14:59:05.76032"}, 
 {"lat":-6.1595193,"lng":106.9499193,"address":"Jl. Cakung Industri Selatan 1 No.2, RT.8/RW.4, Rorotan, Kec. Cilincing, Kota Jkt Utara, Daerah Khusus Ibukota Jakarta 14140, Indonesia","created":"2020-02-01 15:00:17.844935"}, 
 {"lat":-6.1595193,"lng":106.9499193,"address":"Jl. Cakung Industri Selatan 1 No.2, RT.8/RW.4, Rorotan, Kec. Cilincing, Kota Jkt Utara, Daerah Khusus Ibukota Jakarta 14140, Indonesia","created":"2020-02-01 15:01:51.584561"}, 
 {"lat":-6.1595193,"lng":106.9499193,"address":"Jl. Cakung Industri Selatan 1 No.2, RT.8/RW.4, Rorotan, Kec. Cilincing, Kota Jkt Utara, Daerah Khusus Ibukota Jakarta 14140, Indonesia","created":"2020-02-01 15:03:00.017661"}, 
 {"lat":-6.1595193,"lng":106.9499193,"address":"Jl. Cakung Industri Selatan 1 No.2, RT.8/RW.4, Rorotan, Kec. Cilincing, Kota Jkt Utara, Daerah Khusus Ibukota Jakarta 14140, Indonesia","created":"2020-02-01 15:04:00.718579"}, 
 {"lat":-6.1595193,"lng":106.9499193,"address":"Jl. Cakung Industri Selatan 1 No.2, RT.8/RW.4, Rorotan, Kec. Cilincing, Kota Jkt Utara, Daerah Khusus Ibukota Jakarta 14140, Indonesia","created":"2020-02-01 15:04:59.383626"}, 
 {"lat":-6.1595193,"lng":106.9499193,"address":"Jl. Cakung Industri Selatan 1 No.2, RT.8/RW.4, Rorotan, Kec. Cilincing, Kota Jkt Utara, Daerah Khusus Ibukota Jakarta 14140, Indonesia","created":"2020-02-01 15:10:07.733014"}, 
 {"lat":-6.1595193,"lng":106.9499193,"address":"Jl. Cakung Industri Selatan 1 No.2, RT.8/RW.4, Rorotan, Kec. Cilincing, Kota Jkt Utara, Daerah Khusus Ibukota Jakarta 14140, Indonesia","created":"2020-02-01 15:12:38.69315"}, 
 {"lat":-6.1595193,"lng":106.9499193,"address":"Jl. Cakung Industri Selatan 1 No.2, RT.8/RW.4, Rorotan, Kec. Cilincing, Kota Jkt Utara, Daerah Khusus Ibukota Jakarta 14140, Indonesia","created":"2020-02-01 15:13:39.360764"}, 
 {"lat":-6.1595193,"lng":106.9499193,"address":"Jl. Cakung Industri Selatan 1 No.2, RT.8/RW.4, Rorotan, Kec. Cilincing, Kota Jkt Utara, Daerah Khusus Ibukota Jakarta 14140, Indonesia","created":"2020-02-01 15:14:42.8731"}, 
 {"lat":-6.1595193,"lng":106.9499193,"address":"Jl. Cakung Industri Selatan 1 No.2, RT.8/RW.4, Rorotan, Kec. Cilincing, Kota Jkt Utara, Daerah Khusus Ibukota Jakarta 14140, Indonesia","created":"2020-02-01 15:16:14.791263"}, 
 {"lat":-6.1584382,"lng":106.9420305,"address":"Jl. Komp. Babek TN No.1, RW.6, Cakung Tim., Kec. Cakung, Kota Jakarta Timur, Daerah Khusus Ibukota Jakarta 13910, Indonesia","created":"2020-02-01 15:17:15.91338"}, 
 {"lat":-6.1584382,"lng":106.9420305,"address":"Jl. Komp. Babek TN No.1, RW.6, Cakung Tim., Kec. Cakung, Kota Jakarta Timur, Daerah Khusus Ibukota Jakarta 13910, Indonesia","created":"2020-02-01 15:18:17.419583"}, 
 {"lat":-6.1584382,"lng":106.9420305,"address":"Jl. Komp. Babek TN No.1, RW.6, Cakung Tim., Kec. Cakung, Kota Jakarta Timur, Daerah Khusus Ibukota Jakarta 13910, Indonesia","created":"2020-02-01 15:19:17.693796"}, 
 {"lat":-6.1584382,"lng":106.9420305,"address":"Jl. Komp. Babek TN No.1, RW.6, Cakung Tim., Kec. Cakung, Kota Jakarta Timur, Daerah Khusus Ibukota Jakarta 13910, Indonesia","created":"2020-02-01 15:20:33.12288"}, 
 {"lat":-6.1584382,"lng":106.9420305,"address":"Jl. Komp. Babek TN No.1, RW.6, Cakung Tim., Kec. Cakung, Kota Jakarta Timur, Daerah Khusus Ibukota Jakarta 13910, Indonesia","created":"2020-02-01 15:21:38.77222"}, 
 {"lat":-6.1646962,"lng":106.935307,"address":"Gg. Mesjid Jl. Balai Rakyat Cakung No.22, RT.8/RW.8, Cakung Bar., Kec. Cakung, Kota Jakarta Timur, Daerah Khusus Ibukota Jakarta 13910, Indonesia","created":"2020-02-01 15:22:37.780852"}, 
 {"lat":-6.1646962,"lng":106.935307,"address":"Gg. Mesjid Jl. Balai Rakyat Cakung No.22, RT.8/RW.8, Cakung Bar., Kec. Cakung, Kota Jakarta Timur, Daerah Khusus Ibukota Jakarta 13910, Indonesia","created":"2020-02-01 15:23:43.971656"}, 
 {"lat":-6.1646962,"lng":106.935307,"address":"Gg. Mesjid Jl. Balai Rakyat Cakung No.22, RT.8/RW.8, Cakung Bar., Kec. Cakung, Kota Jakarta Timur, Daerah Khusus Ibukota Jakarta 13910, Indonesia","created":"2020-02-01 15:24:44.342831"}, 
 {"lat":-6.1646962,"lng":106.935307,"address":"Gg. Mesjid Jl. Balai Rakyat Cakung No.22, RT.8/RW.8, Cakung Bar., Kec. Cakung, Kota Jakarta Timur, Daerah Khusus Ibukota Jakarta 13910, Indonesia","created":"2020-02-01 15:25:45.380165"}, 
 {"lat":-6.1646962,"lng":106.935307,"address":"Gg. Mesjid Jl. Balai Rakyat Cakung No.22, RT.8/RW.8, Cakung Bar., Kec. Cakung, Kota Jakarta Timur, Daerah Khusus Ibukota Jakarta 13910, Indonesia","created":"2020-02-01 15:26:45.631153"}, 
 {"lat":-6.1646962,"lng":106.935307,"address":"Gg. Mesjid Jl. Balai Rakyat Cakung No.22, RT.8/RW.8, Cakung Bar., Kec. Cakung, Kota Jakarta Timur, Daerah Khusus Ibukota Jakarta 13910, Indonesia","created":"2020-02-01 15:28:58.916097"}, 
 {"lat":-6.1279367,"lng":106.9286666,"address":"Jl. Semper Barat No.1, RT.14/RW.1, Semper Bar., Kec. Cilincing, Kota Jkt Utara, Daerah Khusus Ibukota Jakarta 14130, Indonesia","created":"2020-02-01 15:30:02.185007"}, 
 {"lat":-6.1279367,"lng":106.9286666,"address":"Jl. Semper Barat No.1, RT.14/RW.1, Semper Bar., Kec. Cilincing, Kota Jkt Utara, Daerah Khusus Ibukota Jakarta 14130, Indonesia","created":"2020-02-01 15:30:59.870322"}, 
 {"lat":-6.1279367,"lng":106.9286666,"address":"Jl. Semper Barat No.1, RT.14/RW.1, Semper Bar., Kec. Cilincing, Kota Jkt Utara, Daerah Khusus Ibukota Jakarta 14130, Indonesia","created":"2020-02-01 15:32:02.823153"}, 
 {"lat":-6.1279367,"lng":106.9286666,"address":"Jl. Semper Barat No.1, RT.14/RW.1, Semper Bar., Kec. Cilincing, Kota Jkt Utara, Daerah Khusus Ibukota Jakarta 14130, Indonesia","created":"2020-02-01 15:36:09.059995"}, 
 {"lat":-6.1088483,"lng":106.9080089,"address":"Jl. Raya cilincing No. 2-3 RT. 012/002, Kelurahan Lagoa, Kecamatan Koja, RT.12/RW.2, Lagoa, Kec. Koja, Kota Jkt Utara, Daerah Khusus Ibukota Jakarta 14270, Indonesia","created":"2020-02-01 15:37:09.433781"}, 
 {"lat":-6.1088483,"lng":106.9080089,"address":"Jl. Raya cilincing No. 2-3 RT. 012/002, Kelurahan Lagoa, Kecamatan Koja, RT.12/RW.2, Lagoa, Kec. Koja, Kota Jkt Utara, Daerah Khusus Ibukota Jakarta 14270, Indonesia","created":"2020-02-01 15:38:10.394782"}, 
 {"lat":-6.1089054,"lng":106.9134618,"address":"Jl. Raya Cilincing No.36, RT.13/RW.3, Lagoa, Kec. Koja, Kota Jkt Utara, Daerah Khusus Ibukota Jakarta 14270, Indonesia","created":"2020-02-01 15:39:12.100501"}, 
 {"lat":-6.1089054,"lng":106.9134618,"address":"Jl. Raya Cilincing No.36, RT.13/RW.3, Lagoa, Kec. Koja, Kota Jkt Utara, Daerah Khusus Ibukota Jakarta 14270, Indonesia","created":"2020-02-01 15:44:14.787708"}, 
 {"lat":-6.1073414,"lng":106.9165087,"address":"Jl. Raya Cilincing, Kali Baru, Kec. Cilincing, Kota Jkt Utara, Daerah Khusus Ibukota Jakarta 14110, Indonesia","created":"2020-02-01 15:50:23.266003"}, 
 {"lat":-6.1071186,"lng":106.9167388,"address":"Jl. Kalibaru Bar. I No.34, RW.8, Kali Baru, Kec. Cilincing, Kota Jkt Utara, Daerah Khusus Ibukota Jakarta 14110, Indonesia","created":"2020-02-01 15:51:47.731889"}, 
 {"lat":-6.1071186,"lng":106.9167388,"address":"Jl. Kalibaru Bar. I No.34, RW.8, Kali Baru, Kec. Cilincing, Kota Jkt Utara, Daerah Khusus Ibukota Jakarta 14110, Indonesia","created":"2020-02-01 15:52:48.756449"}, 
 {"lat":-6.1071186,"lng":106.9167388,"address":"Jl. Kalibaru Bar. I No.34, RW.8, Kali Baru, Kec. Cilincing, Kota Jkt Utara, Daerah Khusus Ibukota Jakarta 14110, Indonesia","created":"2020-02-01 15:53:46.417951"}, 
 {"lat":-6.1071186,"lng":106.9167388,"address":"Jl. Kalibaru Bar. I No.34, RW.8, Kali Baru, Kec. Cilincing, Kota Jkt Utara, Daerah Khusus Ibukota Jakarta 14110, Indonesia","created":"2020-02-01 15:55:12.602271"}, 
 {"lat":-6.0949745,"lng":106.9226908,"address":"Unnamed Road, RT.6/RW.9, Indonesia","created":"2020-02-01 15:56:12.73655"}, 
 {"lat":-6.0949745,"lng":106.9226908,"address":"Unnamed Road, RT.6/RW.9, Indonesia","created":"2020-02-01 15:57:10.395753"}, 
 {"lat":-6.0949745,"lng":106.9226908,"address":"Unnamed Road, RT.6/RW.9, Indonesia","created":"2020-02-01 15:58:28.97055"}]